{
    "project": "panda",
    "resource": 
	{
		"file":"info.json",
		"key":"resource_id"
	},
    "tasks": [
    ],
	"servers":
	{
		"OTA": {
			"url": "",
			"token_signature": "",
			"user": "",
			"password": "default"
		},
		"log": {
			"enable":"true",
			"address":"localhost",
			"port":"514"
		},
		"HTTP": {
			"address": "",
			"port": "443",
			"cert_path": "/home/panda/IT/config/cert",
			"cert": "",
			"priv_key": "",
			"trust_chain": "",
			"tls_version": "0",
			"verify_mode": "0",
			"thread_number": "10"
		}
	},
    "path": {
        "configuration": {
            "bin": "/home/panda/IT/bin",
            "lib": "/home/panda/IT/lib",
            "log": "/home/panda/IT/config/log/settings.ini",
            "error_code": "/home/panda/IT/config/EH",
            "configuration_manager": "/home/panda/IT/config/CM",
            "cert": "/home/panda/IT/config/cert"
        },
        "output": {
            "log": "/home/panda/data/log",
            "database": "/home/panda/data/DB",
            "download": "/home/panda/Downloads",
            "utils": "/home/panda/data"
        }
    },
    "version": {
        "major": "",
        "modules": [
            {
                "panda": "0.1.0",
				"monkey":"0.0.1"
            }
        ],
        "release_note": {
            "bug fix": [
                "",
                ""
            ],
            "new function": [
                "",
                ""
            ]
        }
    }
}
